…
  filter(term == "victim_sexMale") |>
  select(city_state, estimate, conf.low, conf.high)

city_data
```

    ## # A tibble: 47 × 4
    ##    city_state      estimate conf.low conf.high
    ##    <chr>              <dbl>    <dbl>     <dbl>
    ##  1 Albuquerque, NM    0.430   0.132      1.16 
    ##  2 Atlanta, GA        0.512   0.323      0.789
    ##  3 Baltimore, MD      0.355   0.267      0.468
    ##  4 Baton Rouge, LA    0.319   0.160      0.596
    ##  5 Birmingham, AL     0.704   0.444      1.09 
    ##  6 Boston, MA         0.674   0.353      1.28 
    ##  7 Buffalo, NY        0.438   0.239      0.793
    ##  8 Charlotte, NC      0.301   0.143      0.572
    ##  9 Chicago, IL        0.391   0.321      0.476
    ## 10 Cincinnati, OH     0.206   0.0977     0.390
    ## # ℹ 37 more rows
…
